…
``` r
batman_list <- OMDb_movie(by = "search", value = "Batman")
```

    ## Query: s=Batman,page=1

``` r
batman_list
```

    ## # A tibble: 508 × 7
    ##    Title                                                  Year  imdbID  Type  Poster Year_start totalResults
    ##    <chr>                                                  <chr> <chr>   <chr> <chr>       <dbl> <chr>       
    ##  1 [Bootleg] Batman: Vickie Valle                         2014  tt4365… movie https…       2014 508         
    ##  2 A Batman Voice Video                                   2012  tt1085… movie N/A          2012 508         
    ##  3 A First Look at Batman: Under the Red Hood             2010  tt1640… movie N/A          2010 508         
    ##  4 A First Look at Superman/Batman: Apocalypse            2010  tt1706… movie N/A          2010 508         
    ##  5 A Test of Minds: The Psychology of Superman and Batman 2009  tt1542… movie N/A          2009 508         
    ##  6 Adis Games: Batman Arkham/Return to Arkham             2016– tt6446… seri… N/A          2016 508         
    ##  7 Alyas Batman at Robin                                  1965  tt1228… movie https…       1965 508         
    ##  8 Alyas Batman en Robin                                  1991  tt0121… movie https…       1991 508         
    ##  9 An Interview with Batman                               2014  tt3521… movie https…       2014 508         
    ## 10 Ask Batman                                             2018  tt8594… movie https…       2018 508         
    ## # … with 498 more rows
…
I think it will be interesting to look at the movies of DC’s another big
IP: Superman.

``` r
superman_list <- OMDb_movie(by = "search", value = "Superman")
```

    ## Query: s=Superman,page=1

``` r
superman_list
```

    ## # A tibble: 282 × 7
    ##    Title                                                  Year   imdbID Type  Poster Year_start totalResults
    ##    <chr>                                                  <chr>  <chr>  <chr> <chr>       <dbl> <chr>       
    ##  1 A First Look at Superman/Batman: Apocalypse            2010   tt170… movie N/A          2010 282         
    ##  2 A Man Who Was Superman                                 2008   tt111… movie https…       2008 282         
    ##  3 A Test of Minds: The Psychology of Superman and Batman 2009   tt154… movie N/A          2009 282         
    ##  4 Aaron Webster's Superman                               1989   tt273… movie N/A          1989 282         
    ##  5 Adventures of Superman                                 1952–… tt004… seri… https…       1952 282         
    ##  6 Alice Underground: Superman                            2016   tt582… movie https…       2016 282         
    ##  7 All-Star Superman                                      2011   tt169… movie https…       2011 282         
    ##  8 Allhelluja: Superhero Motherf*cker Superman            2006   tt429… movie N/A          2006 282         
    ##  9 Argoman the Fantastic Superman                         1967   tt006… movie https…       1967 282         
    ## 10 Argoss - Il fantastico Superman                        2003   tt119… seri… N/A          2003 282         
    ## # … with 272 more rows
…
We join these two data sets and compare them in a two-way contingency
table:

``` r
DC_heroes <- bind_rows(
  batman_list %>% mutate(Hero = "Batman"),
  superman_list %>% mutate(Hero = "Superman")
)
DC_heroes
```

    ## # A tibble: 790 × 8
    ##    Title                                             Year  imdbID Type  Poster Year_start totalResults Hero 
    ##    <chr>                                             <chr> <chr>  <chr> <chr>       <dbl> <chr>        <chr>
    ##  1 [Bootleg] Batman: Vickie Valle                    2014  tt436… movie https…       2014 508          Batm…
    ##  2 A Batman Voice Video                              2012  tt108… movie N/A          2012 508          Batm…
    ##  3 A First Look at Batman: Under the Red Hood        2010  tt164… movie N/A          2010 508          Batm…
    ##  4 A First Look at Superman/Batman: Apocalypse       2010  tt170… movie N/A          2010 508          Batm…
    ##  5 A Test of Minds: The Psychology of Superman and … 2009  tt154… movie N/A          2009 508          Batm…
    ##  6 Adis Games: Batman Arkham/Return to Arkham        2016– tt644… seri… N/A          2016 508          Batm…
    ##  7 Alyas Batman at Robin                             1965  tt122… movie https…       1965 508          Batm…
    ##  8 Alyas Batman en Robin                             1991  tt012… movie https…       1991 508          Batm…
    ##  9 An Interview with Batman                          2014  tt352… movie https…       2014 508          Batm…
    ## 10 Ask Batman                                        2018  tt859… movie https…       2018 508          Batm…
    ## # … with 780 more rows
…
